<svg width="265" height="48" viewBox="0 0 265 48" fill="none" xmlns="http://www.w3.org/2000/svg">
<path d="M68.112 14.3367V22.1102H81.726V27.5726H68.112V38.2873H61.305V8.87433H83.5328V14.3367H68.112ZM97.4692 14.3367V22.1102H111.083V27.5726H97.4692V38.2873H90.6622V8.87433H112.89V14.3367H97.4692ZM120.019 8.87433H126.826V38.2873H120.019V8.87433ZM136.328 8.87433H143.135V32.7408H157.883V38.2873H136.328V8.87433ZM164.208 8.87433H171.015V38.2873H164.208V8.87433ZM199.887 31.9845H186.231L183.626 38.2873H176.65L189.76 8.87433H196.483L209.635 38.2873H202.492L199.887 31.9845ZM197.744 26.8162L193.08 15.5553L188.416 26.8162H197.744ZM219.823 14.4208H210.411V8.87433H236.042V14.4208H226.63V38.2873H219.823V14.4208ZM265 32.8249V38.2873H242.226V8.87433H264.454V14.3367H248.991V20.7235H262.647V26.0179H248.991V32.8249H265Z" fill="#08152D"/>
<path d="M16.4698 30.2769L6.60376 47.3633H14.7975L20.5658 37.3723H33.7748L39.5424 47.3633H47.7367L37.8714 30.2769H16.4698Z" fill="#08152D"/>
<path d="M54.3407 38.8204L37.8707 10.2938H28.0055L23.9096 17.3898H33.7748L33.8286 17.4831L50.245 45.9148L54.3407 38.8204Z" fill="#08152D"/>
<path d="M36.1994 27.3809L32.1021 20.2857H18.8926L26.3342 7.39776H36.1994L32.1029 0.302551H22.2372L4.98548 30.1836L0 38.8204L4.0959 45.9148L14.7976 27.3809H36.1994Z" fill="#08152D"/>
</svg>
