<svg width="34" height="22" viewBox="0 0 34 22" fill="none" xmlns="http://www.w3.org/2000/svg">
<path d="M0.578975 0C0.259253 0 0 0.259187 0 0.578909V21.421C0 21.7407 0.259253 22 0.578975 22H7.52635V0H0.578975Z" fill="#FF4B55"/>
<path d="M33.0001 0H26.0527V22H33.0001C33.3198 22 33.5791 21.7407 33.5791 21.421V0.578909C33.5791 0.259187 33.3198 0 33.0001 0Z" fill="#FF4B55"/>
<path d="M20.3028 13.542L23.7383 11.579L22.95 11.1848C22.7289 11.0742 22.6023 10.8355 22.635 10.5904L22.8915 8.66736L21.4371 9.09051C21.1158 9.18403 20.7823 8.98636 20.7101 8.65969L20.5708 8.03008L19.2051 9.62836C19.0158 9.84991 18.6551 9.6807 18.7045 9.39344L19.2878 6.00223L18.3948 6.24646C18.134 6.31782 17.8585 6.19911 17.7314 5.96052L16.7911 4.19821V4.19559L16.7904 4.1969L16.7897 4.19559V4.19821L15.8494 5.96052C15.7221 6.19905 15.4467 6.31775 15.1859 6.24646L14.2929 6.00223L14.8761 9.39344C14.9255 9.68057 14.5648 9.84984 14.3754 9.62836L13.0098 8.03008L12.8705 8.65969C12.7982 8.98643 12.4648 9.18397 12.1435 9.09051L10.689 8.66736L10.9455 10.5904C10.9783 10.8354 10.8517 11.0742 10.6306 11.1848L9.84229 11.579L13.2778 13.5421C13.6336 13.7455 13.7896 14.1767 13.646 14.5606L13.3523 15.3461L16.2961 15.0948C16.459 15.0809 16.5976 15.212 16.5928 15.3754L16.5001 18.5263H17.0791L16.9863 15.3753C16.9815 15.2119 17.1201 15.0807 17.283 15.0947L20.2282 15.3461L19.9345 14.5606C19.791 14.1767 19.9469 13.7453 20.3028 13.542Z" fill="#FF4B55"/>
</svg>
