<svg width="336" height="47" viewBox="0 0 336 47" fill="none" xmlns="http://www.w3.org/2000/svg">
<path d="M20.2484 0L0 11.6906V35.0712L20.2484 46.7617L40.4966 35.0712V11.6906L20.2484 0ZM7.32716 23.381V17.4128L12.4958 14.4287L17.6642 11.4449L22.8325 8.46086V14.4287L17.6642 17.4128L12.4958 20.3969L7.32716 23.381L13.5294 20.9936L17.6642 23.381L22.8325 26.3651L17.6642 29.3489L12.4958 26.3651L7.32716 23.381ZM33.1695 29.3489L28.0012 32.333L22.8325 35.3169L17.6642 38.301V32.333L22.8325 29.3489L26.8507 27.0289L33.1695 29.3489L28.0012 26.3651L22.8325 23.381L17.6642 20.3969L22.8325 17.4128L28.0012 20.3969L33.1695 23.381V29.3489Z" fill="#182542"/>
<path d="M59.9943 31.5467C63.2048 31.5467 65.9407 30.4021 67.7554 28.2803L65.4103 26.0469C63.9865 27.6103 62.2277 28.3641 60.1898 28.3641C56.1417 28.3641 53.2104 25.5165 53.2104 21.4964C53.2104 17.4763 56.1417 14.6287 60.1898 14.6287C62.2277 14.6287 63.9865 15.3825 65.4103 16.9179L67.7554 14.7125C65.9407 12.5908 63.2048 11.4461 60.0223 11.4461C54.02 11.4461 49.5532 15.6617 49.5532 21.4964C49.5532 27.3311 54.02 31.5467 59.9943 31.5467ZM74.2201 18.5372V16.3596H70.8979V31.2675H74.3876V24.0369C74.3876 20.9939 76.0626 19.4305 78.7148 19.4305C78.966 19.4305 79.2173 19.4584 79.5244 19.5143V16.1921C77.0397 16.1921 75.2251 16.9738 74.2201 18.5372ZM93.6386 16.3596L88.9205 27.387L84.2304 16.3596H80.6012L87.1059 31.3233L86.8546 31.9096C86.1846 33.3892 85.4588 33.9755 84.2304 33.9755C83.2812 33.9755 82.332 33.5846 81.662 32.9425L80.2661 35.5109C81.2153 36.3764 82.7787 36.8789 84.2583 36.8789C86.743 36.8789 88.6414 35.846 90.0093 32.4679L96.9887 16.3596H93.6386ZM107.433 16.1921C105.395 16.1921 103.664 16.89 102.492 18.3138V16.3596H99.1697V36.6835H102.659V29.4529C103.86 30.8208 105.535 31.4629 107.433 31.4629C111.788 31.4629 114.999 28.4478 114.999 23.8135C114.999 19.2072 111.788 16.1921 107.433 16.1921ZM107.042 28.4758C104.53 28.4758 102.604 26.6611 102.604 23.8135C102.604 20.966 104.53 19.1513 107.042 19.1513C109.555 19.1513 111.453 20.966 111.453 23.8135C111.453 26.6611 109.555 28.4758 107.042 28.4758ZM126.293 27.9732C125.762 28.392 125.064 28.5874 124.339 28.5874C122.998 28.5874 122.273 27.8057 122.273 26.354V19.263H126.265V16.4713H122.273V13.0653H118.783V16.4713H116.326V19.263H118.783V26.4378C118.783 29.732 120.653 31.4629 123.92 31.4629C125.176 31.4629 126.432 31.1279 127.27 30.4579L126.293 27.9732ZM136.35 31.4629C140.984 31.4629 144.306 28.2803 144.306 23.8135C144.306 19.3468 140.984 16.1921 136.35 16.1921C131.772 16.1921 128.421 19.3468 128.421 23.8135C128.421 28.2803 131.772 31.4629 136.35 31.4629ZM136.35 28.4758C133.837 28.4758 131.939 26.6611 131.939 23.8135C131.939 20.966 133.837 19.1513 136.35 19.1513C138.89 19.1513 140.789 20.966 140.789 23.8135C140.789 26.6611 138.89 28.4758 136.35 28.4758ZM154.037 31.5467C159.397 31.5467 161.938 28.8666 161.938 25.7398C161.938 18.5651 150.352 21.2731 150.352 17.1134C150.352 15.6337 151.58 14.4612 154.595 14.4612C156.298 14.4612 158.225 14.9637 159.983 15.9967L161.128 13.177C159.425 12.0603 156.968 11.4461 154.623 11.4461C149.263 11.4461 146.75 14.1262 146.75 17.2809C146.75 24.5394 158.364 21.7756 158.364 25.9911C158.364 27.4428 157.08 28.5316 154.037 28.5316C151.636 28.5316 149.151 27.6382 147.588 26.382L146.332 29.2016C147.951 30.5975 150.994 31.5467 154.037 31.5467ZM173.185 27.9732C172.655 28.392 171.957 28.5874 171.231 28.5874C169.891 28.5874 169.165 27.8057 169.165 26.354V19.263H173.158V16.4713H169.165V13.0653H165.676V16.4713H163.219V19.263H165.676V26.4378C165.676 29.732 167.546 31.4629 170.812 31.4629C172.069 31.4629 173.325 31.1279 174.163 30.4579L173.185 27.9732ZM182.728 16.1921C180.327 16.1921 178.01 16.8063 176.418 18.0346L177.786 20.5751C178.903 19.6539 180.634 19.0955 182.309 19.0955C184.794 19.0955 186.022 20.296 186.022 22.3339V22.5573H182.169C177.647 22.5573 175.972 24.5115 175.972 26.9961C175.972 29.5925 178.121 31.4629 181.527 31.4629C183.761 31.4629 185.38 30.7371 186.217 29.4529V31.2675H189.512V22.5293C189.512 18.2301 187.027 16.1921 182.728 16.1921ZM182.253 28.9224C180.466 28.9224 179.405 28.1128 179.405 26.8565C179.405 25.7678 180.048 24.8744 182.421 24.8744H186.022V26.6053C185.436 28.1407 183.956 28.9224 182.253 28.9224ZM197.313 18.5372V16.3596H193.991V31.2675H197.481V24.0369C197.481 20.9939 199.156 19.4305 201.808 19.4305C202.059 19.4305 202.31 19.4584 202.617 19.5143V16.1921C200.133 16.1921 198.318 16.9738 197.313 18.5372ZM214.107 27.9732C213.576 28.392 212.878 28.5874 212.153 28.5874C210.813 28.5874 210.087 27.8057 210.087 26.354V19.263H214.079V16.4713H210.087V13.0653H206.597V16.4713H204.14V19.263H206.597V26.4378C206.597 29.732 208.467 31.4629 211.734 31.4629C212.99 31.4629 214.246 31.1279 215.084 30.4579L214.107 27.9732ZM228.899 16.3596V23.8973C228.899 26.8845 227.252 28.392 224.823 28.392C222.617 28.392 221.333 27.1078 221.333 24.3998V16.3596H217.844V24.8744C217.844 29.3691 220.44 31.4629 224.265 31.4629C226.191 31.4629 227.95 30.7371 229.066 29.3691V31.2675H232.389V16.3596H228.899ZM245.221 16.1921C243.183 16.1921 241.452 16.89 240.279 18.3138V16.3596H236.957V36.6835H240.447V29.4529C241.647 30.8208 243.322 31.4629 245.221 31.4629C249.576 31.4629 252.786 28.4478 252.786 23.8135C252.786 19.2072 249.576 16.1921 245.221 16.1921ZM244.83 28.4758C242.317 28.4758 240.391 26.6611 240.391 23.8135C240.391 20.966 242.317 19.1513 244.83 19.1513C247.342 19.1513 249.241 20.966 249.241 23.8135C249.241 26.6611 247.342 28.4758 244.83 28.4758ZM260.702 31.4629C264.89 31.4629 267.458 29.6483 267.458 26.8565C267.458 21.0218 258.246 23.7019 258.246 20.6868C258.246 19.7097 259.251 19.0118 261.372 19.0118C262.796 19.0118 264.22 19.2909 265.644 20.1285L266.984 17.4763C265.644 16.6667 263.382 16.1921 261.4 16.1921C257.38 16.1921 254.84 18.0346 254.84 20.8543C254.84 26.8007 264.052 24.1206 264.052 26.9682C264.052 28.0012 263.131 28.6153 260.926 28.6153C259.055 28.6153 257.045 28.0012 255.733 27.1357L254.393 29.7879C255.733 30.7371 258.218 31.4629 260.702 31.4629ZM271.58 31.4629C272.837 31.4629 273.87 30.4858 273.87 29.1458C273.87 27.7499 272.837 26.8286 271.58 26.8286C270.324 26.8286 269.291 27.7499 269.291 29.1458C269.291 30.4858 270.324 31.4629 271.58 31.4629ZM283.847 31.4629C286.751 31.4629 289.066 30.2066 290.212 27.9732L287.532 26.4099C286.639 27.8337 285.299 28.4758 283.819 28.4758C281.251 28.4758 279.297 26.717 279.297 23.8135C279.297 20.9381 281.251 19.1513 283.819 19.1513C285.299 19.1513 286.639 19.7934 287.532 21.2172L290.212 19.6539C289.066 17.3925 286.751 16.1921 283.847 16.1921C279.129 16.1921 275.779 19.3468 275.779 23.8135C275.779 28.2803 279.129 31.4629 283.847 31.4629ZM299.71 31.4629C304.344 31.4629 307.666 28.2803 307.666 23.8135C307.666 19.3468 304.344 16.1921 299.71 16.1921C295.131 16.1921 291.781 19.3468 291.781 23.8135C291.781 28.2803 295.131 31.4629 299.71 31.4629ZM299.71 28.4758C297.197 28.4758 295.299 26.6611 295.299 23.8135C295.299 20.966 297.197 19.1513 299.71 19.1513C302.25 19.1513 304.149 20.966 304.149 23.8135C304.149 26.6611 302.25 28.4758 299.71 28.4758ZM329.82 16.1921C327.447 16.1921 325.437 17.1413 324.237 18.6767C323.204 17.0017 321.389 16.1921 319.212 16.1921C317.174 16.1921 315.443 16.9179 314.326 18.258V16.3596H311.004V31.2675H314.494V23.7019C314.494 20.7426 316.057 19.2351 318.374 19.2351C320.496 19.2351 321.724 20.5193 321.724 23.1714V31.2675H325.214V23.7019C325.214 20.7426 326.805 19.2351 329.094 19.2351C331.216 19.2351 332.444 20.5193 332.444 23.1714V31.2675H335.934V22.7248C335.934 18.2301 333.422 16.1921 329.82 16.1921Z" fill="#182542"/>
</svg>
