<svg width="135" height="17" viewBox="0 0 135 17" fill="none" xmlns="http://www.w3.org/2000/svg">
<path d="M0 0.269989H4.455V16.02H0V0.269989ZM22.6094 0.269989V16.02H18.9419L11.9894 7.62749V16.02H7.62444V0.269989H11.2919L18.2444 8.66249V0.269989H22.6094ZM25.7519 0.269989H33.1994C34.9245 0.269989 36.4545 0.592495 37.7894 1.23749C39.1244 1.88248 40.1594 2.7975 40.8944 3.98249C41.6295 5.16748 41.9969 6.555 41.9969 8.14499C41.9969 9.73498 41.6295 11.1225 40.8944 12.3075C40.1594 13.4925 39.1244 14.4075 37.7894 15.0525C36.4545 15.6974 34.9245 16.02 33.1994 16.02H25.7519V0.269989ZM33.0194 12.465C34.3694 12.465 35.4494 12.0825 36.2594 11.3175C37.0845 10.5525 37.4969 9.49499 37.4969 8.14499C37.4969 6.79499 37.0845 5.73749 36.2594 4.97249C35.4494 4.20749 34.3694 3.82499 33.0194 3.82499H30.2069V12.465H33.0194ZM44.3408 0.269989H48.7958V16.02H44.3408V0.269989ZM62.5178 12.96H55.8578L54.6203 16.02H50.0753L57.0278 0.269989H61.4153L68.3903 16.02H63.7553L62.5178 12.96ZM61.2128 9.67499L59.1878 4.63499L57.1628 9.67499H61.2128ZM84.6383 0.269989V16.02H80.9708L74.0183 7.62749V16.02H69.6533V0.269989H73.3208L80.2733 8.66249V0.269989H84.6383Z" fill="#5F6163"/>
<path d="M95.7008 16.29C94.0658 16.29 92.5882 15.9376 91.2683 15.2325C89.9633 14.5274 88.9358 13.56 88.1858 12.33C87.4508 11.085 87.0833 9.68999 87.0833 8.145C87.0833 6.60001 87.4508 5.21249 88.1858 3.9825C88.9358 2.73749 89.9633 1.76251 91.2683 1.0575C92.5882 0.352494 94.0658 0 95.7008 0C97.3357 0 98.8058 0.352494 100.111 1.0575C101.416 1.76251 102.443 2.73749 103.193 3.9825C103.943 5.21249 104.318 6.60001 104.318 8.145C104.318 9.68999 103.943 11.085 103.193 12.33C102.443 13.56 101.416 14.5274 100.111 15.2325C98.8058 15.9376 97.3357 16.29 95.7008 16.29ZM95.7008 13.185C96.6308 13.185 97.4707 12.975 98.2208 12.555C98.9708 12.12 99.5558 11.52 99.9758 10.755C100.411 9.99 100.628 9.12001 100.628 8.145C100.628 7.16999 100.411 6.3 99.9758 5.535C99.5558 4.77 98.9708 4.17749 98.2208 3.7575C97.4707 3.32249 96.6308 3.105 95.7008 3.105C94.7707 3.105 93.9308 3.32249 93.1808 3.7575C92.4307 4.17749 91.8383 4.77 91.4033 5.535C90.9833 6.3 90.7733 7.16999 90.7733 8.145C90.7733 9.12001 90.9833 9.99 91.4033 10.755C91.8383 11.52 92.4307 12.12 93.1808 12.555C93.9308 12.975 94.7707 13.185 95.7008 13.185ZM110.1 3.24H105.06V0.27H118.785V3.24H113.745V16.02H110.1V3.24ZM128.064 16.29C126.459 16.29 125.004 15.9449 123.699 15.255C122.409 14.5499 121.389 13.5825 120.639 12.3525C119.904 11.1075 119.537 9.70501 119.537 8.145C119.537 6.58499 119.904 5.18999 120.639 3.96C121.389 2.71499 122.409 1.74749 123.699 1.0575C125.004 0.352494 126.467 0 128.087 0C129.452 0 130.682 0.239994 131.777 0.72C132.887 1.20001 133.817 1.89 134.567 2.79L132.227 4.95C131.162 3.72001 129.842 3.105 128.267 3.105C127.292 3.105 126.422 3.32249 125.657 3.7575C124.892 4.17749 124.292 4.77 123.857 5.535C123.437 6.3 123.227 7.16999 123.227 8.145C123.227 9.12001 123.437 9.99 123.857 10.755C124.292 11.52 124.892 12.12 125.657 12.555C126.422 12.975 127.292 13.185 128.267 13.185C129.842 13.185 131.162 12.5625 132.227 11.3175L134.567 13.4775C133.817 14.3924 132.887 15.0899 131.777 15.57C130.667 16.0501 129.429 16.29 128.064 16.29Z" fill="#F2A900"/>
</svg>
