<svg width="6" height="9" viewBox="0 0 6 9" fill="none" xmlns="http://www.w3.org/2000/svg">
<path d="M5.90351 4.24483L2.21234 0.119784C2.14404 0.0435578 2.04826 0 1.94794 0L0.361795 0C0.0463811 0 -0.117419 0.390549 0.0973913 0.630412L3.5627 4.5L0.0973913 8.36959C-0.117419 8.60945 0.0463811 9 0.361795 9H1.94794C2.04826 9 2.14404 8.95674 2.21234 8.88022L5.90351 4.75517C6.03216 4.61125 6.03216 4.38875 5.90351 4.24483Z" fill="#182542"/>
</svg>
