<svg width="37" height="36" viewBox="0 0 37 36" fill="none" xmlns="http://www.w3.org/2000/svg">
<path d="M31.0424 5.58823L29.1797 6.83L26.0752 6.20911L24.2125 5.58823L21.7289 6.20911L19.8662 5.58823L21.108 3.10463H23.5916L26.0255 1.8877C27.9026 2.81592 29.6007 4.06887 31.0424 5.58823Z" fill="#03AA6F"/>
<path d="M16.7623 3.10433L16.1414 4.96704L14.2787 5.58792L12.416 8.6924L9.31149 10.5551L4.96525 11.176V13.0387L6.20701 14.2805V16.7641L4.34444 15.5222L2.48172 14.2805L1.40137 11.0332C3.26092 6.60181 6.81559 3.0987 11.2736 1.30371L13.0369 2.48344L16.7623 3.10433Z" fill="#03AA6F"/>
<path d="M18.0036 20.4899L17.3828 23.5944L14.8992 26.078V27.9407L12.4156 29.8034V32.9079L10.5529 32.287L9.31109 29.1825V22.9735L6.20661 22.3527L4.96484 19.8691V18.0063L6.20661 16.7646L8.06932 14.9019L9.31109 17.3855H13.6573L15.5201 20.4899H18.0036Z" fill="#03AA6F"/>
<path d="M33.7119 9.20812C37.1014 15.255 36.7152 22.7114 32.7185 28.3751L31.0421 26.6987V24.2151L29.8003 21.7315L28.5586 19.2479V16.7643L26.6958 15.5226L24.2122 16.1435L19.866 14.2807L19.2451 9.93449L21.1078 8.07178H24.8332L26.075 9.93449L29.8003 10.5554L33.5257 9.31361L33.7119 9.20812Z" fill="#03AA6F"/>
<path d="M21.7288 6.20885L24.2124 5.58797L26.0751 6.20885L29.1796 6.82974L31.0423 5.58797C32.0823 6.67641 32.9795 7.89272 33.7122 9.20777L33.5259 9.31333L29.8006 10.5551L26.0752 9.93421L24.8335 8.0715H21.1081L19.2454 9.93421L19.8663 14.2805L24.2125 16.1432L26.6961 15.5223L28.5588 16.7641V19.2477L29.8006 21.7313L31.0423 24.2149V26.6985L32.7188 28.3749C26.9848 36.4999 15.7496 38.4378 7.62522 32.7037C0.725181 27.8334 -1.86335 18.8223 1.40071 11.0332L2.48106 14.2805L4.34378 15.5222L6.2065 16.764L4.96466 18.0058V19.8685L6.20643 22.3521L9.31091 22.973V29.182L10.5527 32.2865L12.4154 32.9073V29.8029L14.899 27.9401V26.0774L17.3826 23.5938L18.0035 20.4894H15.5199L13.6572 17.3849H9.31091L8.06915 14.9013L6.20643 16.764V14.2804L4.96466 13.0387V11.176L9.31091 10.5551L12.4154 8.69238L14.2781 5.5879L16.1408 4.96702L16.7617 3.1043L13.0363 2.48342L11.273 1.30369C16.0477 -0.619233 21.4172 -0.406904 26.0255 1.88736L23.5916 3.1043H21.108L19.8662 5.5879L21.7288 6.20885Z" fill="#86DAF1"/>
</svg>
